{
    "meta":{},
    "data":{
  "menu": [
    {
      "name": "perfil",
      "uri": "/",
      "state": "app.perfil",
      "nodes": [],
      "icon": "fa fa-user-o",
      "padre": true
    },
    {
      "name": "historial",
      "uri": "/",
      "state": "app.historial",
      "nodes": [],
      "icon": "fa fa-book",
      "padre": true
    }
    ,
    {
      "name": "prestamo",
      "uri": "/",
      "state": "app.prestamo",
      "nodes": [],
      "icon": "fa fa-money",
      "padre": true
    }
  ]
  }
}